
{
    "project":[
        {
            "class":"JavaPackage",
            "package_name":"src",
            "number_children":3,
            "node_index":0,
            "parent_index":-1
        },
        {
            "class":"JavaPackage",
            "package_name":"DefaultPackage",
            "number_children":7,
            "node_index":1,
            "parent_index":0
        },
        {
            "class":"JavaPackage",
            "package_name":"DefaultPackage.a",
            "number_children":1,
            "node_index":2,
            "parent_index":1
        },
        {
            "class":"UMLObject",
            "name":"Dummy",
            "package_name":"DefaultPackage.a",
            "is_interface":false,
            "is_abstract":false,
            "node_index":3,
            "parent_index":2,
            "x_position":0.0,
            "y_position":400.0,
            "width":150.0,
            "name_height":100,
            "variable_height":0,
            "method_height":0,
            "variables":[
                {
                    "variable_key":"hello",
                    "variable_name":"hello",
                    "variable_type":"int",
                    "variable_access":"protected",
                    "variable_is_static":false
                }
            ],
            "methods":[
                {
                    "method_key":"yell",
                    "method_name":"yell",
                    "method_type":"void",
                    "method_access":"public",
                    "method_is_static":false,
                    "method_is_abstract":false,
                    "method_arguements":[
                    ]
                }
            ],
            "parents":[
            ]
        },
        {
            "class":"UMLObject",
            "name":"DragInterface",
            "package_name":"DefaultPackage",
            "is_interface":true,
            "is_abstract":false,
            "node_index":4,
            "parent_index":1,
            "x_position":10.0,
            "y_position":10.0,
            "width":150.0,
            "name_height":100,
            "variable_height":0,
            "method_height":0,
            "variables":[
            ],
            "methods":[
                {
                    "method_key":"start",
                    "method_name":"start",
                    "method_type":"void",
                    "method_access":"public",
                    "method_is_static":false,
                    "method_is_abstract":true,
                    "method_arguements":[
                        {
                            "method_arguement_name":"x",
                            "method_arguement_type":"int"
                        }
                    ]
                },
                {
                    "method_key":"drag",
                    "method_name":"drag",
                    "method_type":"void",
                    "method_access":"public",
                    "method_is_static":false,
                    "method_is_abstract":true,
                    "method_arguements":[
                        {
                            "method_arguement_name":"y",
                            "method_arguement_type":"int"
                        }
                    ]
                }
            ],
            "parents":[
            ]
        },
        {
            "class":"UMLObject",
            "name":"ThreadExample",
            "package_name":"DefaultPackage",
            "is_interface":false,
            "is_abstract":false,
            "node_index":5,
            "parent_index":1,
            "x_position":400.0,
            "y_position":400.0,
            "width":150.0,
            "name_height":100,
            "variable_height":0,
            "method_height":0,
            "variables":[
                {
                    "variable_key":"START_TEXT",
                    "variable_name":"START_TEXT",
                    "variable_type":"String",
                    "variable_access":"public",
                    "variable_is_static":true
                },
                {
                    "variable_key":"appPane",
                    "variable_name":"appPane",
                    "variable_type":"BorderPane",
                    "variable_access":"private",
                    "variable_is_static":false
                },
                {
                    "variable_key":"pauseButton",
                    "variable_name":"pauseButton",
                    "variable_type":"Button",
                    "variable_access":"private",
                    "variable_is_static":false
                },
                {
                    "variable_key":"scrollPane",
                    "variable_name":"scrollPane",
                    "variable_type":"ScrollPane",
                    "variable_access":"private",
                    "variable_is_static":false
                },
                {
                    "variable_key":"startButton",
                    "variable_name":"startButton",
                    "variable_type":"Button",
                    "variable_access":"private",
                    "variable_is_static":false
                },
                {
                    "variable_key":"work",
                    "variable_name":"work",
                    "variable_type":"boolean",
                    "variable_access":"private",
                    "variable_is_static":false
                },
                {
                    "variable_key":"dateTask",
                    "variable_name":"dateTask",
                    "variable_type":"Task",
                    "variable_access":"private",
                    "variable_is_static":false
                },
                {
                    "variable_key":"PAUSE_TEXT",
                    "variable_name":"PAUSE_TEXT",
                    "variable_type":"String",
                    "variable_access":"public",
                    "variable_is_static":true
                },
                {
                    "variable_key":"counterTask",
                    "variable_name":"counterTask",
                    "variable_type":"Task",
                    "variable_access":"private",
                    "variable_is_static":false
                },
                {
                    "variable_key":"counterThread",
                    "variable_name":"counterThread",
                    "variable_type":"Thread",
                    "variable_access":"private",
                    "variable_is_static":false
                },
                {
                    "variable_key":"topPane",
                    "variable_name":"topPane",
                    "variable_type":"FlowPane",
                    "variable_access":"private",
                    "variable_is_static":false
                },
                {
                    "variable_key":"dateThread",
                    "variable_name":"dateThread",
                    "variable_type":"Thread",
                    "variable_access":"private",
                    "variable_is_static":false
                },
                {
                    "variable_key":"window",
                    "variable_name":"window",
                    "variable_type":"Stage",
                    "variable_access":"private",
                    "variable_is_static":false
                },
                {
                    "variable_key":"textArea",
                    "variable_name":"textArea",
                    "variable_type":"TextArea",
                    "variable_access":"private",
                    "variable_is_static":false
                }
            ],
            "methods":[
                {
                    "method_key":"sleep",
                    "method_name":"sleep",
                    "method_type":"void",
                    "method_access":"public",
                    "method_is_static":false,
                    "method_is_abstract":false,
                    "method_arguements":[
                        {
                            "method_arguement_name":"timeToSleep",
                            "method_arguement_type":"int"
                        }
                    ]
                },
                {
                    "method_key":"startWork",
                    "method_name":"startWork",
                    "method_type":"void",
                    "method_access":"public",
                    "method_is_static":false,
                    "method_is_abstract":false,
                    "method_arguements":[
                    ]
                },
                {
                    "method_key":"pauseWork",
                    "method_name":"pauseWork",
                    "method_type":"void",
                    "method_access":"public",
                    "method_is_static":false,
                    "method_is_abstract":false,
                    "method_arguements":[
                    ]
                },
                {
                    "method_key":"doWork",
                    "method_name":"doWork",
                    "method_type":"boolean",
                    "method_access":"public",
                    "method_is_static":false,
                    "method_is_abstract":false,
                    "method_arguements":[
                    ]
                },
                {
                    "method_key":"initWindow",
                    "method_name":"initWindow",
                    "method_type":"void",
                    "method_access":"private",
                    "method_is_static":false,
                    "method_is_abstract":false,
                    "method_arguements":[
                        {
                            "method_arguement_name":"initPrimaryStage",
                            "method_arguement_type":"Stage"
                        }
                    ]
                },
                {
                    "method_key":"initThreads",
                    "method_name":"initThreads",
                    "method_type":"void",
                    "method_access":"private",
                    "method_is_static":false,
                    "method_is_abstract":false,
                    "method_arguements":[
                    ]
                },
                {
                    "method_key":"start",
                    "method_name":"start",
                    "method_type":"void",
                    "method_access":"public",
                    "method_is_static":false,
                    "method_is_abstract":false,
                    "method_arguements":[
                        {
                            "method_arguement_name":"primaryStage",
                            "method_arguement_type":"Stage"
                        }
                    ]
                },
                {
                    "method_key":"main",
                    "method_name":"main",
                    "method_type":"void",
                    "method_access":"public",
                    "method_is_static":true,
                    "method_is_abstract":false,
                    "method_arguements":[
                        {
                            "method_arguement_name":"args",
                            "method_arguement_type":"String[]"
                        }
                    ]
                },
                {
                    "method_key":"appendText",
                    "method_name":"appendText",
                    "method_type":"void",
                    "method_access":"public",
                    "method_is_static":false,
                    "method_is_abstract":false,
                    "method_arguements":[
                        {
                            "method_arguement_name":"textToAppend",
                            "method_arguement_type":"String"
                        }
                    ]
                },
                {
                    "method_key":"initLayout",
                    "method_name":"initLayout",
                    "method_type":"void",
                    "method_access":"private",
                    "method_is_static":false,
                    "method_is_abstract":false,
                    "method_arguements":[
                    ]
                }
            ],
            "parents":[
                {
                    "class":"UMLObject",
                    "name":"Application",
                    "package_name":"javafx.application",
                    "is_interface":false,
                    "is_abstract":true,
                    "node_index":0,
                    "parent_index":0,
                    "x_position":500.0,
                    "y_position":100.0,
                    "width":150.0,
                    "name_height":100,
                    "variable_height":0,
                    "method_height":0,
                    "variables":[
                    ],
                    "methods":[
                        {
                            "method_key":"start",
                            "method_name":"start",
                            "method_type":"void",
                            "method_access":"",
                            "method_is_static":false,
                            "method_is_abstract":true,
                            "method_arguements":[
                                {
                                    "method_arguement_name":"primaryStage",
                                    "method_arguement_type":"Stage"
                                }
                            ]
                        }
                    ],
                    "parents":[
                    ]
                }
            ]
        },
        {
            "class":"UMLObject",
            "name":"PauseHandler",
            "package_name":"DefaultPackage",
            "is_interface":false,
            "is_abstract":false,
            "node_index":6,
            "parent_index":1,
            "x_position":600.0,
            "y_position":500.0,
            "width":150.0,
            "name_height":100,
            "variable_height":0,
            "method_height":0,
            "variables":[
                {
                    "variable_key":"app",
                    "variable_name":"app",
                    "variable_type":"ThreadExample",
                    "variable_access":"private",
                    "variable_is_static":false
                }
            ],
            "methods":[
                {
                    "method_key":"PauseHandler",
                    "method_name":"PauseHandler",
                    "method_type":"",
                    "method_access":"public",
                    "method_is_static":false,
                    "method_is_abstract":false,
                    "method_arguements":[
                        {
                            "method_arguement_name":"initApp",
                            "method_arguement_type":"ThreadExample"
                        }
                    ]
                },
                {
                    "method_key":"handle",
                    "method_name":"handle",
                    "method_type":"void",
                    "method_access":"public",
                    "method_is_static":false,
                    "method_is_abstract":false,
                    "method_arguements":[
                        {
                            "method_arguement_name":"event",
                            "method_arguement_type":"Event"
                        }
                    ]
                }
            ],
            "parents":[
                {
                    "class":"UMLObject",
                    "name":"EventHandler",
                    "package_name":"javafx.event",
                    "is_interface":true,
                    "is_abstract":false,
                    "node_index":0,
                    "parent_index":0,
                    "x_position":300.0,
                    "y_position":0.0,
                    "width":150.0,
                    "name_height":100,
                    "variable_height":0,
                    "method_height":0,
                    "variables":[
                    ],
                    "methods":[
                        {
                            "method_key":"handle",
                            "method_name":"handle",
                            "method_type":"void",
                            "method_access":"public",
                            "method_is_static":false,
                            "method_is_abstract":false,
                            "method_arguements":[
                                {
                                    "method_arguement_name":"event",
                                    "method_arguement_type":"Event"
                                }
                            ]
                        }
                    ],
                    "parents":[
                    ]
                }
            ]
        },
        {
            "class":"UMLObject",
            "name":"StartHandler",
            "package_name":"DefaultPackage",
            "is_interface":false,
            "is_abstract":false,
            "node_index":7,
            "parent_index":1,
            "x_position":600.0,
            "y_position":700.0,
            "width":150.0,
            "name_height":100,
            "variable_height":0,
            "method_height":0,
            "variables":[
                {
                    "variable_key":"app",
                    "variable_name":"app",
                    "variable_type":"ThreadExample",
                    "variable_access":"private",
                    "variable_is_static":false
                }
            ],
            "methods":[
                {
                    "method_key":"handle",
                    "method_name":"handle",
                    "method_type":"void",
                    "method_access":"public",
                    "method_is_static":false,
                    "method_is_abstract":false,
                    "method_arguements":[
                        {
                            "method_arguement_name":"event",
                            "method_arguement_type":"Event"
                        }
                    ]
                },
                {
                    "method_key":"StartHandler",
                    "method_name":"StartHandler",
                    "method_type":"",
                    "method_access":"public",
                    "method_is_static":false,
                    "method_is_abstract":false,
                    "method_arguements":[
                        {
                            "method_arguement_name":"initApp",
                            "method_arguement_type":"ThreadExample"
                        }
                    ]
                }
            ],
            "parents":[
                {
                    "class":"UMLObject",
                    "name":"EventHandler",
                    "package_name":"javafx.event",
                    "is_interface":true,
                    "is_abstract":false,
                    "node_index":0,
                    "parent_index":0,
                    "x_position":300.0,
                    "y_position":0.0,
                    "width":150.0,
                    "name_height":100,
                    "variable_height":0,
                    "method_height":0,
                    "variables":[
                    ],
                    "methods":[
                        {
                            "method_key":"handle",
                            "method_name":"handle",
                            "method_type":"void",
                            "method_access":"public",
                            "method_is_static":false,
                            "method_is_abstract":false,
                            "method_arguements":[
                                {
                                    "method_arguement_name":"event",
                                    "method_arguement_type":"Event"
                                }
                            ]
                        }
                    ],
                    "parents":[
                    ]
                }
            ]
        },
        {
            "class":"UMLObject",
            "name":"CounterTask",
            "package_name":"DefaultPackage",
            "is_interface":false,
            "is_abstract":false,
            "node_index":8,
            "parent_index":1,
            "x_position":200.0,
            "y_position":200.0,
            "width":150.0,
            "name_height":100,
            "variable_height":0,
            "method_height":0,
            "variables":[
                {
                    "variable_key":"app",
                    "variable_name":"app",
                    "variable_type":"ThreadExample",
                    "variable_access":"private",
                    "variable_is_static":false
                },
                {
                    "variable_key":"counter",
                    "variable_name":"counter",
                    "variable_type":"int",
                    "variable_access":"private",
                    "variable_is_static":false
                }
            ],
            "methods":[
                {
                    "method_key":"call",
                    "method_name":"call",
                    "method_type":"Void",
                    "method_access":"protected",
                    "method_is_static":false,
                    "method_is_abstract":false,
                    "method_arguements":[
                    ]
                },
                {
                    "method_key":"CounterTask",
                    "method_name":"CounterTask",
                    "method_type":"",
                    "method_access":"public",
                    "method_is_static":false,
                    "method_is_abstract":false,
                    "method_arguements":[
                        {
                            "method_arguement_name":"initApp",
                            "method_arguement_type":"ThreadExample"
                        }
                    ]
                }
            ],
            "parents":[
                {
                    "class":"UMLObject",
                    "name":"Task",
                    "package_name":"javafx.concurrent",
                    "is_interface":false,
                    "is_abstract":false,
                    "node_index":0,
                    "parent_index":0,
                    "x_position":900.0,
                    "y_position":0.0,
                    "width":150.0,
                    "name_height":100,
                    "variable_height":0,
                    "method_height":0,
                    "variables":[
                    ],
                    "methods":[
                    ],
                    "parents":[
                    ]
                }
            ]
        },
        {
            "class":"UMLObject",
            "name":"DateTask",
            "package_name":"DefaultPackage",
            "is_interface":false,
            "is_abstract":false,
            "node_index":9,
            "parent_index":1,
            "x_position":200.0,
            "y_position":700.0,
            "width":150.0,
            "name_height":100,
            "variable_height":0,
            "method_height":0,
            "variables":[
                {
                    "variable_key":"app",
                    "variable_name":"app",
                    "variable_type":"ThreadExample",
                    "variable_access":"private",
                    "variable_is_static":false
                },
                {
                    "variable_key":"now",
                    "variable_name":"now",
                    "variable_type":"Date",
                    "variable_access":"private",
                    "variable_is_static":false
                }
            ],
            "methods":[
                {
                    "method_key":"call",
                    "method_name":"call",
                    "method_type":"Void",
                    "method_access":"protected",
                    "method_is_static":false,
                    "method_is_abstract":false,
                    "method_arguements":[
                    ]
                },
                {
                    "method_key":"DateTask",
                    "method_name":"DateTask",
                    "method_type":"",
                    "method_access":"public",
                    "method_is_static":false,
                    "method_is_abstract":false,
                    "method_arguements":[
                        {
                            "method_arguement_name":"initApp",
                            "method_arguement_type":"ThreadExample"
                        }
                    ]
                }
            ],
            "parents":[
                {
                    "class":"UMLObject",
                    "name":"Task",
                    "package_name":"javafx.concurrent",
                    "is_interface":false,
                    "is_abstract":false,
                    "node_index":0,
                    "parent_index":0,
                    "x_position":900.0,
                    "y_position":0.0,
                    "width":150.0,
                    "name_height":100,
                    "variable_height":0,
                    "method_height":0,
                    "variables":[
                    ],
                    "methods":[
                    ],
                    "parents":[
                    ]
                }
            ]
        },
        {
            "class":"JavaPackage",
            "package_name":"java",
            "number_children":3,
            "node_index":10,
            "parent_index":0
        },
        {
            "class":"JavaPackage",
            "package_name":"java.util",
            "number_children":0,
            "node_index":11,
            "parent_index":10
        },
        {
            "class":"UMLObject",
            "name":"Date",
            "package_name":"java.util",
            "is_interface":false,
            "is_abstract":false,
            "node_index":12,
            "parent_index":10,
            "x_position":900.0,
            "y_position":250.0,
            "width":150.0,
            "name_height":100,
            "variable_height":0,
            "method_height":0,
            "variables":[
            ],
            "methods":[
            ],
            "parents":[
            ]
        },
        {
            "class":"UMLObject",
            "name":"Thread",
            "package_name":"java.lang",
            "is_interface":false,
            "is_abstract":false,
            "node_index":13,
            "parent_index":10,
            "x_position":700.0,
            "y_position":250.0,
            "width":150.0,
            "name_height":100,
            "variable_height":0,
            "method_height":0,
            "variables":[
            ],
            "methods":[
            ],
            "parents":[
            ]
        },
        {
            "class":"JavaPackage",
            "package_name":"javafx",
            "number_children":11,
            "node_index":14,
            "parent_index":0
        },
        {
            "class":"UMLObject",
            "name":"Application",
            "package_name":"javafx.application",
            "is_interface":false,
            "is_abstract":true,
            "node_index":15,
            "parent_index":14,
            "x_position":500.0,
            "y_position":100.0,
            "width":150.0,
            "name_height":100,
            "variable_height":0,
            "method_height":0,
            "variables":[
            ],
            "methods":[
                {
                    "method_key":"start",
                    "method_name":"start",
                    "method_type":"void",
                    "method_access":"",
                    "method_is_static":false,
                    "method_is_abstract":true,
                    "method_arguements":[
                        {
                            "method_arguement_name":"primaryStage",
                            "method_arguement_type":"Stage"
                        }
                    ]
                }
            ],
            "parents":[
            ]
        },
        {
            "class":"UMLObject",
            "name":"EventHandler",
            "package_name":"javafx.event",
            "is_interface":true,
            "is_abstract":false,
            "node_index":16,
            "parent_index":14,
            "x_position":300.0,
            "y_position":0.0,
            "width":150.0,
            "name_height":100,
            "variable_height":0,
            "method_height":0,
            "variables":[
            ],
            "methods":[
                {
                    "method_key":"handle",
                    "method_name":"handle",
                    "method_type":"void",
                    "method_access":"public",
                    "method_is_static":false,
                    "method_is_abstract":false,
                    "method_arguements":[
                        {
                            "method_arguement_name":"event",
                            "method_arguement_type":"Event"
                        }
                    ]
                }
            ],
            "parents":[
            ]
        },
        {
            "class":"UMLObject",
            "name":"Task",
            "package_name":"javafx.concurrent",
            "is_interface":false,
            "is_abstract":false,
            "node_index":17,
            "parent_index":14,
            "x_position":900.0,
            "y_position":0.0,
            "width":150.0,
            "name_height":100,
            "variable_height":0,
            "method_height":0,
            "variables":[
            ],
            "methods":[
            ],
            "parents":[
            ]
        },
        {
            "class":"UMLObject",
            "name":"Platform",
            "package_name":"javafx.application",
            "is_interface":false,
            "is_abstract":false,
            "node_index":18,
            "parent_index":14,
            "x_position":900.0,
            "y_position":125.0,
            "width":150.0,
            "name_height":100,
            "variable_height":0,
            "method_height":0,
            "variables":[
            ],
            "methods":[
            ],
            "parents":[
            ]
        },
        {
            "class":"UMLObject",
            "name":"Stage",
            "package_name":"javafx.stage",
            "is_interface":false,
            "is_abstract":false,
            "node_index":19,
            "parent_index":14,
            "x_position":900.0,
            "y_position":375.0,
            "width":150.0,
            "name_height":100,
            "variable_height":0,
            "method_height":0,
            "variables":[
            ],
            "methods":[
            ],
            "parents":[
            ]
        },
        {
            "class":"UMLObject",
            "name":"BorderPane",
            "package_name":"javafx.scene.layout",
            "is_interface":false,
            "is_abstract":false,
            "node_index":20,
            "parent_index":14,
            "x_position":900.0,
            "y_position":500.0,
            "width":150.0,
            "name_height":100,
            "variable_height":0,
            "method_height":0,
            "variables":[
            ],
            "methods":[
            ],
            "parents":[
            ]
        },
        {
            "class":"UMLObject",
            "name":"FlowPane",
            "package_name":"javafx.scene.layout",
            "is_interface":false,
            "is_abstract":false,
            "node_index":21,
            "parent_index":14,
            "x_position":900.0,
            "y_position":625.0,
            "width":150.0,
            "name_height":100,
            "variable_height":0,
            "method_height":0,
            "variables":[
            ],
            "methods":[
            ],
            "parents":[
            ]
        },
        {
            "class":"UMLObject",
            "name":"Button",
            "package_name":"javafx.scene.control",
            "is_interface":false,
            "is_abstract":false,
            "node_index":22,
            "parent_index":14,
            "x_position":900.0,
            "y_position":750.0,
            "width":150.0,
            "name_height":100,
            "variable_height":0,
            "method_height":0,
            "variables":[
            ],
            "methods":[
            ],
            "parents":[
            ]
        },
        {
            "class":"UMLObject",
            "name":"ScrollPane",
            "package_name":"javafx.scene.control",
            "is_interface":false,
            "is_abstract":false,
            "node_index":23,
            "parent_index":14,
            "x_position":700.0,
            "y_position":0.0,
            "width":150.0,
            "name_height":100,
            "variable_height":0,
            "method_height":0,
            "variables":[
            ],
            "methods":[
            ],
            "parents":[
            ]
        },
        {
            "class":"UMLObject",
            "name":"TextArea",
            "package_name":"javafx.scene.control",
            "is_interface":false,
            "is_abstract":false,
            "node_index":24,
            "parent_index":14,
            "x_position":700.0,
            "y_position":125.0,
            "width":150.0,
            "name_height":100,
            "variable_height":0,
            "method_height":0,
            "variables":[
            ],
            "methods":[
            ],
            "parents":[
            ]
        },
        {
            "class":"UMLObject",
            "name":"Event",
            "package_name":"javafx.event",
            "is_interface":false,
            "is_abstract":false,
            "node_index":25,
            "parent_index":14,
            "x_position":700.0,
            "y_position":375.0,
            "width":150.0,
            "name_height":100,
            "variable_height":0,
            "method_height":0,
            "variables":[
            ],
            "methods":[
            ],
            "parents":[
            ]
        }
    ],
    "relationships":[
        [
            {
                "class":"Line",
                "line_start_x":400.0,
                "line_start_y":300.0,
                "line_end_x":250.0,
                "line_end_y":200.0
            },
            {
                "class":"DraggablePoint",
                "point_center_x":250.0,
                "point_center_y":200.0
            },
            {
                "class":"Line",
                "line_start_x":250.0,
                "line_start_y":200.0,
                "line_end_x":100.0,
                "line_end_y":100.0
            },
            {
                "relation_type":"Aggregation",
                "rectangle_x":400.0,
                "rectangle_y":295.0
            }
        ],
        [
            {
                "class":"Line",
                "line_start_x":10.0,
                "line_start_y":200.0,
                "line_end_x":55.0,
                "line_end_y":200.0
            },
            {
                "class":"DraggablePoint",
                "point_center_x":55.0,
                "point_center_y":200.0
            },
            {
                "class":"Line",
                "line_start_x":55.0,
                "line_start_y":200.0,
                "line_end_x":100.0,
                "line_end_y":200.0
            },
            [
                "Association",
                90.0,
                205.0,
                100.0,
                200.0,
                90.0,
                195.0
            ]
        ],
        [
            {
                "class":"Line",
                "line_start_x":100.0,
                "line_start_y":300.0,
                "line_end_x":150.0,
                "line_end_y":300.0
            },
            {
                "class":"DraggablePoint",
                "point_center_x":150.0,
                "point_center_y":300.0
            },
            {
                "class":"Line",
                "line_start_x":150.0,
                "line_start_y":300.0,
                "line_end_x":200.0,
                "line_end_y":300.0
            },
            {
                "relation_type":"Aggregation",
                "rectangle_x":100.0,
                "rectangle_y":295.0
            }
        ]
    ]
}