
{
    "grid_toggle":true,
    "snap_toggle":false,
    "grid_width":40,
    "uml_object_counter":19,
    "project":[
        {
            "class":"JavaPackage",
            "package_name":"src",
            "number_children":3,
            "node_index":0,
            "parent_index":-1
        },
        {
            "class":"JavaPackage",
            "package_name":"DefaultPackage",
            "number_children":5,
            "node_index":1,
            "parent_index":0
        },
        {
            "class":"UMLObject",
            "name":"ThreadExample",
            "id":2,
            "package_name":"DefaultPackage",
            "parent_id":1,
            "is_interface":false,
            "is_abstract":false,
            "node_index":2,
            "parent_index":1,
            "x_position":400.0,
            "y_position":400.0,
            "width":150.0,
            "name_height":100,
            "variable_height":0,
            "method_height":0,
            "variables":[
                {
                    "variable_key":"START_TEXT",
                    "variable_name":"START_TEXT",
                    "variable_type":"String",
                    "variable_access":"public",
                    "variable_is_static":true
                },
                {
                    "variable_key":"appPane",
                    "variable_name":"appPane",
                    "variable_type":"BorderPane",
                    "variable_access":"private",
                    "variable_is_static":false
                },
                {
                    "variable_key":"pauseButton",
                    "variable_name":"pauseButton",
                    "variable_type":"Button",
                    "variable_access":"private",
                    "variable_is_static":false
                },
                {
                    "variable_key":"scrollPane",
                    "variable_name":"scrollPane",
                    "variable_type":"ScrollPane",
                    "variable_access":"private",
                    "variable_is_static":false
                },
                {
                    "variable_key":"startButton",
                    "variable_name":"startButton",
                    "variable_type":"Button",
                    "variable_access":"private",
                    "variable_is_static":false
                },
                {
                    "variable_key":"work",
                    "variable_name":"work",
                    "variable_type":"boolean",
                    "variable_access":"private",
                    "variable_is_static":false
                },
                {
                    "variable_key":"dateTask",
                    "variable_name":"dateTask",
                    "variable_type":"Task",
                    "variable_access":"private",
                    "variable_is_static":false
                },
                {
                    "variable_key":"PAUSE_TEXT",
                    "variable_name":"PAUSE_TEXT",
                    "variable_type":"String",
                    "variable_access":"public",
                    "variable_is_static":true
                },
                {
                    "variable_key":"counterTask",
                    "variable_name":"counterTask",
                    "variable_type":"Task",
                    "variable_access":"private",
                    "variable_is_static":false
                },
                {
                    "variable_key":"counterThread",
                    "variable_name":"counterThread",
                    "variable_type":"Thread",
                    "variable_access":"private",
                    "variable_is_static":false
                },
                {
                    "variable_key":"topPane",
                    "variable_name":"topPane",
                    "variable_type":"FlowPane",
                    "variable_access":"private",
                    "variable_is_static":false
                },
                {
                    "variable_key":"dateThread",
                    "variable_name":"dateThread",
                    "variable_type":"Thread",
                    "variable_access":"private",
                    "variable_is_static":false
                },
                {
                    "variable_key":"window",
                    "variable_name":"window",
                    "variable_type":"Stage",
                    "variable_access":"private",
                    "variable_is_static":false
                },
                {
                    "variable_key":"textArea",
                    "variable_name":"textArea",
                    "variable_type":"TextArea",
                    "variable_access":"private",
                    "variable_is_static":false
                }
            ],
            "show_variables":false,
            "methods":[
                {
                    "method_key":"sleep",
                    "method_name":"sleep",
                    "method_type":"void",
                    "method_access":"public",
                    "method_is_static":false,
                    "method_is_abstract":false,
                    "method_arguements":[
                        {
                            "method_arguement_name":"timeToSleep",
                            "method_arguement_type":"int"
                        }
                    ]
                },
                {
                    "method_key":"startWork",
                    "method_name":"startWork",
                    "method_type":"void",
                    "method_access":"public",
                    "method_is_static":false,
                    "method_is_abstract":false,
                    "method_arguements":[
                    ]
                },
                {
                    "method_key":"pauseWork",
                    "method_name":"pauseWork",
                    "method_type":"void",
                    "method_access":"public",
                    "method_is_static":false,
                    "method_is_abstract":false,
                    "method_arguements":[
                    ]
                },
                {
                    "method_key":"doWork",
                    "method_name":"doWork",
                    "method_type":"boolean",
                    "method_access":"public",
                    "method_is_static":false,
                    "method_is_abstract":false,
                    "method_arguements":[
                    ]
                },
                {
                    "method_key":"initWindow",
                    "method_name":"initWindow",
                    "method_type":"void",
                    "method_access":"private",
                    "method_is_static":false,
                    "method_is_abstract":false,
                    "method_arguements":[
                        {
                            "method_arguement_name":"initPrimaryStage",
                            "method_arguement_type":"Stage"
                        }
                    ]
                },
                {
                    "method_key":"initThreads",
                    "method_name":"initThreads",
                    "method_type":"void",
                    "method_access":"private",
                    "method_is_static":false,
                    "method_is_abstract":false,
                    "method_arguements":[
                    ]
                },
                {
                    "method_key":"start",
                    "method_name":"start",
                    "method_type":"void",
                    "method_access":"public",
                    "method_is_static":false,
                    "method_is_abstract":false,
                    "method_arguements":[
                        {
                            "method_arguement_name":"primaryStage",
                            "method_arguement_type":"Stage"
                        }
                    ]
                },
                {
                    "method_key":"main",
                    "method_name":"main",
                    "method_type":"void",
                    "method_access":"public",
                    "method_is_static":true,
                    "method_is_abstract":false,
                    "method_arguements":[
                        {
                            "method_arguement_name":"args",
                            "method_arguement_type":"String[]"
                        }
                    ]
                },
                {
                    "method_key":"appendText",
                    "method_name":"appendText",
                    "method_type":"void",
                    "method_access":"public",
                    "method_is_static":false,
                    "method_is_abstract":false,
                    "method_arguements":[
                        {
                            "method_arguement_name":"textToAppend",
                            "method_arguement_type":"String"
                        }
                    ]
                },
                {
                    "method_key":"initLayout",
                    "method_name":"initLayout",
                    "method_type":"void",
                    "method_access":"private",
                    "method_is_static":false,
                    "method_is_abstract":false,
                    "method_arguements":[
                    ]
                }
            ],
            "show_methods":false,
            "interface_ids":[
            ]
        },
        {
            "class":"UMLObject",
            "name":"PauseHandler",
            "id":4,
            "package_name":"DefaultPackage",
            "parent_id":-1,
            "is_interface":false,
            "is_abstract":false,
            "node_index":3,
            "parent_index":1,
            "x_position":600.0,
            "y_position":500.0,
            "width":150.0,
            "name_height":100,
            "variable_height":0,
            "method_height":0,
            "variables":[
                {
                    "variable_key":"app",
                    "variable_name":"app",
                    "variable_type":"ThreadExample",
                    "variable_access":"private",
                    "variable_is_static":false
                }
            ],
            "show_variables":false,
            "methods":[
                {
                    "method_key":"PauseHandler",
                    "method_name":"PauseHandler",
                    "method_type":"",
                    "method_access":"public",
                    "method_is_static":false,
                    "method_is_abstract":false,
                    "method_arguements":[
                        {
                            "method_arguement_name":"initApp",
                            "method_arguement_type":"ThreadExample"
                        }
                    ]
                },
                {
                    "method_key":"handle",
                    "method_name":"handle",
                    "method_type":"void",
                    "method_access":"public",
                    "method_is_static":false,
                    "method_is_abstract":false,
                    "method_arguements":[
                        {
                            "method_arguement_name":"event",
                            "method_arguement_type":"Event"
                        }
                    ]
                }
            ],
            "show_methods":false,
            "interface_ids":[
                3
            ]
        },
        {
            "class":"UMLObject",
            "name":"StartHandler",
            "id":5,
            "package_name":"DefaultPackage",
            "parent_id":-1,
            "is_interface":false,
            "is_abstract":false,
            "node_index":4,
            "parent_index":1,
            "x_position":600.0,
            "y_position":700.0,
            "width":150.0,
            "name_height":100,
            "variable_height":0,
            "method_height":0,
            "variables":[
                {
                    "variable_key":"app",
                    "variable_name":"app",
                    "variable_type":"ThreadExample",
                    "variable_access":"private",
                    "variable_is_static":false
                }
            ],
            "show_variables":false,
            "methods":[
                {
                    "method_key":"handle",
                    "method_name":"handle",
                    "method_type":"void",
                    "method_access":"public",
                    "method_is_static":false,
                    "method_is_abstract":false,
                    "method_arguements":[
                        {
                            "method_arguement_name":"event",
                            "method_arguement_type":"Event"
                        }
                    ]
                },
                {
                    "method_key":"StartHandler",
                    "method_name":"StartHandler",
                    "method_type":"",
                    "method_access":"public",
                    "method_is_static":false,
                    "method_is_abstract":false,
                    "method_arguements":[
                        {
                            "method_arguement_name":"initApp",
                            "method_arguement_type":"ThreadExample"
                        }
                    ]
                }
            ],
            "show_methods":false,
            "interface_ids":[
                3
            ]
        },
        {
            "class":"UMLObject",
            "name":"CounterTask",
            "id":7,
            "package_name":"DefaultPackage",
            "parent_id":6,
            "is_interface":false,
            "is_abstract":false,
            "node_index":5,
            "parent_index":1,
            "x_position":200.0,
            "y_position":200.0,
            "width":150.0,
            "name_height":100,
            "variable_height":0,
            "method_height":0,
            "variables":[
                {
                    "variable_key":"app",
                    "variable_name":"app",
                    "variable_type":"ThreadExample",
                    "variable_access":"private",
                    "variable_is_static":false
                },
                {
                    "variable_key":"counter",
                    "variable_name":"counter",
                    "variable_type":"int",
                    "variable_access":"private",
                    "variable_is_static":false
                }
            ],
            "show_variables":false,
            "methods":[
                {
                    "method_key":"call",
                    "method_name":"call",
                    "method_type":"Void",
                    "method_access":"protected",
                    "method_is_static":false,
                    "method_is_abstract":false,
                    "method_arguements":[
                    ]
                },
                {
                    "method_key":"CounterTask",
                    "method_name":"CounterTask",
                    "method_type":"",
                    "method_access":"public",
                    "method_is_static":false,
                    "method_is_abstract":false,
                    "method_arguements":[
                        {
                            "method_arguement_name":"initApp",
                            "method_arguement_type":"ThreadExample"
                        }
                    ]
                }
            ],
            "show_methods":false,
            "interface_ids":[
            ]
        },
        {
            "class":"UMLObject",
            "name":"DateTask",
            "id":8,
            "package_name":"DefaultPackage",
            "parent_id":6,
            "is_interface":false,
            "is_abstract":false,
            "node_index":6,
            "parent_index":1,
            "x_position":200.0,
            "y_position":700.0,
            "width":150.0,
            "name_height":100,
            "variable_height":0,
            "method_height":0,
            "variables":[
                {
                    "variable_key":"app",
                    "variable_name":"app",
                    "variable_type":"ThreadExample",
                    "variable_access":"private",
                    "variable_is_static":false
                },
                {
                    "variable_key":"now",
                    "variable_name":"now",
                    "variable_type":"Date",
                    "variable_access":"private",
                    "variable_is_static":false
                }
            ],
            "show_variables":false,
            "methods":[
                {
                    "method_key":"call",
                    "method_name":"call",
                    "method_type":"Void",
                    "method_access":"protected",
                    "method_is_static":false,
                    "method_is_abstract":false,
                    "method_arguements":[
                    ]
                },
                {
                    "method_key":"DateTask",
                    "method_name":"DateTask",
                    "method_type":"",
                    "method_access":"public",
                    "method_is_static":false,
                    "method_is_abstract":false,
                    "method_arguements":[
                        {
                            "method_arguement_name":"initApp",
                            "method_arguement_type":"ThreadExample"
                        }
                    ]
                }
            ],
            "show_methods":false,
            "interface_ids":[
            ]
        },
        {
            "class":"JavaPackage",
            "package_name":"java",
            "number_children":3,
            "node_index":7,
            "parent_index":0
        },
        {
            "class":"JavaPackage",
            "package_name":"java.util",
            "number_children":0,
            "node_index":8,
            "parent_index":7
        },
        {
            "class":"UMLObject",
            "name":"Date",
            "id":10,
            "package_name":"java.util",
            "parent_id":-1,
            "is_interface":false,
            "is_abstract":false,
            "node_index":9,
            "parent_index":7,
            "x_position":900.0,
            "y_position":250.0,
            "width":150.0,
            "name_height":100,
            "variable_height":0,
            "method_height":0,
            "variables":[
            ],
            "show_variables":false,
            "methods":[
            ],
            "show_methods":false,
            "interface_ids":[
            ]
        },
        {
            "class":"UMLObject",
            "name":"Thread",
            "id":17,
            "package_name":"java.lang",
            "parent_id":-1,
            "is_interface":false,
            "is_abstract":false,
            "node_index":10,
            "parent_index":7,
            "x_position":700.0,
            "y_position":250.0,
            "width":150.0,
            "name_height":100,
            "variable_height":0,
            "method_height":0,
            "variables":[
            ],
            "show_variables":false,
            "methods":[
            ],
            "show_methods":false,
            "interface_ids":[
            ]
        },
        {
            "class":"JavaPackage",
            "package_name":"javafx",
            "number_children":11,
            "node_index":11,
            "parent_index":0
        },
        {
            "class":"UMLObject",
            "name":"Application",
            "id":1,
            "package_name":"javafx.application",
            "parent_id":-1,
            "is_interface":false,
            "is_abstract":true,
            "node_index":12,
            "parent_index":11,
            "x_position":500.0,
            "y_position":100.0,
            "width":150.0,
            "name_height":100,
            "variable_height":0,
            "method_height":0,
            "variables":[
            ],
            "show_variables":false,
            "methods":[
                {
                    "method_key":"start",
                    "method_name":"start",
                    "method_type":"void",
                    "method_access":"",
                    "method_is_static":false,
                    "method_is_abstract":true,
                    "method_arguements":[
                        {
                            "method_arguement_name":"primaryStage",
                            "method_arguement_type":"Stage"
                        }
                    ]
                }
            ],
            "show_methods":false,
            "interface_ids":[
            ]
        },
        {
            "class":"UMLObject",
            "name":"EventHandler",
            "id":3,
            "package_name":"javafx.event",
            "parent_id":-1,
            "is_interface":true,
            "is_abstract":false,
            "node_index":13,
            "parent_index":11,
            "x_position":300.0,
            "y_position":0.0,
            "width":150.0,
            "name_height":100,
            "variable_height":0,
            "method_height":0,
            "variables":[
            ],
            "show_variables":false,
            "methods":[
                {
                    "method_key":"handle",
                    "method_name":"handle",
                    "method_type":"void",
                    "method_access":"public",
                    "method_is_static":false,
                    "method_is_abstract":false,
                    "method_arguements":[
                        {
                            "method_arguement_name":"event",
                            "method_arguement_type":"Event"
                        }
                    ]
                }
            ],
            "show_methods":false,
            "interface_ids":[
            ]
        },
        {
            "class":"UMLObject",
            "name":"Task",
            "id":6,
            "package_name":"javafx.concurrent",
            "parent_id":-1,
            "is_interface":false,
            "is_abstract":false,
            "node_index":14,
            "parent_index":11,
            "x_position":900.0,
            "y_position":0.0,
            "width":150.0,
            "name_height":100,
            "variable_height":0,
            "method_height":0,
            "variables":[
            ],
            "show_variables":false,
            "methods":[
            ],
            "show_methods":false,
            "interface_ids":[
            ]
        },
        {
            "class":"UMLObject",
            "name":"Platform",
            "id":9,
            "package_name":"javafx.application",
            "parent_id":-1,
            "is_interface":false,
            "is_abstract":false,
            "node_index":15,
            "parent_index":11,
            "x_position":900.0,
            "y_position":125.0,
            "width":150.0,
            "name_height":100,
            "variable_height":0,
            "method_height":0,
            "variables":[
            ],
            "show_variables":false,
            "methods":[
            ],
            "show_methods":false,
            "interface_ids":[
            ]
        },
        {
            "class":"UMLObject",
            "name":"Stage",
            "id":11,
            "package_name":"javafx.stage",
            "parent_id":-1,
            "is_interface":false,
            "is_abstract":false,
            "node_index":16,
            "parent_index":11,
            "x_position":900.0,
            "y_position":375.0,
            "width":150.0,
            "name_height":100,
            "variable_height":0,
            "method_height":0,
            "variables":[
            ],
            "show_variables":false,
            "methods":[
            ],
            "show_methods":false,
            "interface_ids":[
            ]
        },
        {
            "class":"UMLObject",
            "name":"BorderPane",
            "id":12,
            "package_name":"javafx.scene.layout",
            "parent_id":-1,
            "is_interface":false,
            "is_abstract":false,
            "node_index":17,
            "parent_index":11,
            "x_position":900.0,
            "y_position":500.0,
            "width":150.0,
            "name_height":100,
            "variable_height":0,
            "method_height":0,
            "variables":[
            ],
            "show_variables":false,
            "methods":[
            ],
            "show_methods":false,
            "interface_ids":[
            ]
        },
        {
            "class":"UMLObject",
            "name":"FlowPane",
            "id":13,
            "package_name":"javafx.scene.layout",
            "parent_id":-1,
            "is_interface":false,
            "is_abstract":false,
            "node_index":18,
            "parent_index":11,
            "x_position":900.0,
            "y_position":625.0,
            "width":150.0,
            "name_height":100,
            "variable_height":0,
            "method_height":0,
            "variables":[
            ],
            "show_variables":false,
            "methods":[
            ],
            "show_methods":false,
            "interface_ids":[
            ]
        },
        {
            "class":"UMLObject",
            "name":"Button",
            "id":14,
            "package_name":"javafx.scene.control",
            "parent_id":-1,
            "is_interface":false,
            "is_abstract":false,
            "node_index":19,
            "parent_index":11,
            "x_position":900.0,
            "y_position":750.0,
            "width":150.0,
            "name_height":100,
            "variable_height":0,
            "method_height":0,
            "variables":[
            ],
            "show_variables":false,
            "methods":[
            ],
            "show_methods":false,
            "interface_ids":[
            ]
        },
        {
            "class":"UMLObject",
            "name":"ScrollPane",
            "id":15,
            "package_name":"javafx.scene.control",
            "parent_id":-1,
            "is_interface":false,
            "is_abstract":false,
            "node_index":20,
            "parent_index":11,
            "x_position":700.0,
            "y_position":0.0,
            "width":150.0,
            "name_height":100,
            "variable_height":0,
            "method_height":0,
            "variables":[
            ],
            "show_variables":false,
            "methods":[
            ],
            "show_methods":false,
            "interface_ids":[
            ]
        },
        {
            "class":"UMLObject",
            "name":"TextArea",
            "id":16,
            "package_name":"javafx.scene.control",
            "parent_id":-1,
            "is_interface":false,
            "is_abstract":false,
            "node_index":21,
            "parent_index":11,
            "x_position":700.0,
            "y_position":125.0,
            "width":150.0,
            "name_height":100,
            "variable_height":0,
            "method_height":0,
            "variables":[
            ],
            "show_variables":false,
            "methods":[
            ],
            "show_methods":false,
            "interface_ids":[
            ]
        },
        {
            "class":"UMLObject",
            "name":"Event",
            "id":18,
            "package_name":"javafx.event",
            "parent_id":-1,
            "is_interface":false,
            "is_abstract":false,
            "node_index":22,
            "parent_index":11,
            "x_position":700.0,
            "y_position":375.0,
            "width":150.0,
            "name_height":100,
            "variable_height":0,
            "method_height":0,
            "variables":[
            ],
            "show_variables":false,
            "methods":[
            ],
            "show_methods":false,
            "interface_ids":[
            ]
        }
    ],
    "relationships":[
        [
            {
                "class":"Line",
                "line_start_x":10.0,
                "line_start_y":100.0,
                "line_end_x":55.0,
                "line_end_y":100.0
            },
            {
                "class":"DraggablePoint",
                "point_center_x":55.0,
                "point_center_y":100.0
            },
            {
                "class":"Line",
                "line_start_x":55.0,
                "line_start_y":100.0,
                "line_end_x":100.0,
                "line_end_y":100.0
            },
            [
                "Inheiritance",
                100.0,
                100.0,
                90.0,
                105.0,
                90.0,
                95.0
            ]
        ],
        [
            {
                "class":"Line",
                "line_start_x":10.0,
                "line_start_y":200.0,
                "line_end_x":55.0,
                "line_end_y":200.0
            },
            {
                "class":"DraggablePoint",
                "point_center_x":55.0,
                "point_center_y":200.0
            },
            {
                "class":"Line",
                "line_start_x":55.0,
                "line_start_y":200.0,
                "line_end_x":100.0,
                "line_end_y":200.0
            },
            {
                "relation_type":"Aggregation",
                "rectangle_x":10.0,
                "rectangle_y":195.0
            }
        ],
        [
            {
                "class":"Line",
                "line_start_x":1000.0,
                "line_start_y":300.0,
                "line_end_x":600.0,
                "line_end_y":300.0
            },
            {
                "class":"DraggablePoint",
                "point_center_x":600.0,
                "point_center_y":300.0
            },
            {
                "class":"Line",
                "line_start_x":600.0,
                "line_start_y":300.0,
                "line_end_x":200.0,
                "line_end_y":300.0
            },
            [
                "Association",
                190.0,
                305.0,
                200.0,
                300.0,
                190.0,
                295.0
            ]
        ]
    ]
}